Lab05_Load_type/test.vcd
$date
	Mon Apr 21 09:28:43 2025
$end
$version
	Icarus Verilog
$end
$timescale
	1s
$end
$scope module top_test $end
$var wire 32 ! cycle [31:0] $end
$var reg 1 " clk $end
$var reg 1 # rst $end
$scope module dut $end
$var wire 1 " clk $end
$var wire 1 # rst $end
$var wire 4 $ wstrb [3:0] $end
$var wire 1 % rstrb $end
$var wire 32 & mem_wdata [31:0] $end
$var wire 32 ' mem_rdata [31:0] $end
$var wire 32 ( cycle [31:0] $end
$var wire 32 ) addr [31:0] $end
$scope module cpu0 $end
$var wire 32 * OR [31:0] $end
$var wire 1 + TAKE_BRANCH $end
$var wire 32 , XOR [31:0] $end
$var wire 1 " clk $end
$var wire 1 - load_store_state_flag $end
$var wire 1 % mem_rstrb $end
$var wire 1 # rst $end
$var wire 1 . write_reg_en $end
$var wire 32 / write_reg_data [31:0] $end
$var wire 5 0 rd [4:0] $end
$var wire 32 1 pcplusimm [31:0] $end
$var wire 32 2 pcplus4 [31:0] $end
$var wire 5 3 opcode [4:0] $end
$var wire 4 4 mem_wstrb [3:0] $end
$var wire 32 5 mem_wdata [31:0] $end
$var wire 32 6 mem_rdata [31:0] $end
$var wire 32 7 mem_addr [31:0] $end
$var wire 32 8 load_store_addr [31:0] $end
$var wire 32 9 load_data_tmp [31:0] $end
$var wire 1 : isSystype $end
$var wire 1 ; isStype $end
$var wire 1 < isRtype $end
$var wire 1 = isLtype $end
$var wire 1 > isItype $end
$var wire 1 ? isBtype $end
$var wire 7 @ funct7 [6:0] $end
$var wire 3 A funct3 [2:0] $end
$var wire 8 B byte4_data [7:0] $end
$var wire 8 C byte3_data [7:0] $end
$var wire 8 D byte2_data [7:0] $end
$var wire 8 E byte1_data [7:0] $end
$var wire 32 F alu_result [31:0] $end
$var wire 32 G alu_in2 [31:0] $end
$var wire 32 H alu_in1 [31:0] $end
$var wire 32 I S_data [31:0] $end
$var wire 32 J SW_data [31:0] $end
$var wire 33 K SUB [32:0] $end
$var wire 32 L SH_data [31:0] $end
$var wire 32 M SB_data [31:0] $end
$var wire 1 N NEQUAL $end
$var wire 1 O LESS_THAN_U $end
$var wire 1 P LESS_THAN $end
$var wire 32 Q I_data [31:0] $end
$var wire 1 R GREATER_THAN_U $end
$var wire 1 S GREATER_THAN $end
$var wire 1 T EQUAL $end
$var wire 32 U B_data [31:0] $end
$var wire 32 V ADD [31:0] $end
$var parameter 32 W BYTE1 $end
$var parameter 32 X BYTE2 $end
$var parameter 32 Y BYTE3 $end
$var parameter 32 Z BYTE4 $end
$var parameter 32 [ DECODE $end
$var parameter 32 \ EXECUTE $end
$var parameter 32 ] FETCH $end
$var parameter 32 ^ HLT $end
$var parameter 32 _ RESET $end
$var parameter 32 ` WAIT $end
$var parameter 32 a WAIT_LOADING $end
$var reg 32 b addr [31:0] $end
$var reg 32 c cycle [31:0] $end
$var reg 32 d data [31:0] $end
$var reg 32 e data_rs1 [31:0] $end
$var reg 32 f data_rs2 [31:0] $end
$var reg 4 g state [3:0] $end
$upscope $end
$scope module mem0 $end
$var wire 32 h addr [31:0] $end
$var wire 1 " clk $end
$var wire 32 i data_in [31:0] $end
$var wire 1 % rd_strobe $end
$var wire 1 # rst $end
$var wire 4 j wr_strobe [3:0] $end
$var wire 30 k mem_loc [29:0] $end
$var parameter 32 l MEM_SIZE $end
$var reg 32 m data_out [31:0] $end
$upscope $end
$upscope $end
$upscope $end
$enddefinitions $end
$comment Show the parameter values. $end
$dumpall
b10000000000 l
b1010 a
b1001 `
b0 _
b100 ^
b1 ]
b11 \
b10 [
b1000 Z
b111 Y
b110 X
b101 W
$end
#0
$dumpvars
bx m
b0 k
b0 j
b0xxxxxxxx i
b0 h
b0 g
bx f
bx e
bx d
b0 c
b0 b
bx V
bx0 U
xT
xS
xR
bx Q
xP
xO
xN
b0xxxxxxxx M
b0xxxxxxxxxxxxxxxx L
bx K
bx J
bx I
bx H
bx G
bx F
bx E
bx D
bx C
bx B
bx A
bx @
x?
x>
x=
x<
x;
x:
b0xxxxxxxx 9
b0 8
b0 7
bx 6
b0xxxxxxxx 5
b0 4
bx 3
b100 2
bx 1
bx 0
bx /
0.
0-
bx ,
x+
bx *
b0 )
b0 (
bx '
b0xxxxxxxx &
0%
b0 $
1#
0"
b0 !
$end
#5
b0 /
b0 E
b0 D
b0xxxxxxxx L
b0xxxxxxxx J
b0 C
b0 G
b0 9
b0 1
0<
0>
0:
0?
0;
1=
b0 3
b0 0
b0 A
b0 @
b0 Q
b0 U
b0 I
b0 d
b0 '
b0 6
b0 m
1"
#10
0"
#15
1"
#20
0"
#25
1"
#30
0"
#35
1"
#40
0"
#45
1"
#50
0"
0#
#55
1%
b1 !
b1 (
b1 c
b1001 g
1"
#60
0"
#65
b10010011 /
b10010011 9
0%
b1 g
b10 !
b10 (
b10 c
b10000000000000000010010011 '
b10000000000000000010010011 6
b10000000000000000010010011 m
1"
#70
0"
#75
bx1xxxxx *
bx /
b100000 G
1>
0=
b100 3
b1 0
b1 @
b100000 Q
b100000100000 U
b100001 I
b11 !
b11 (
b11 c
b10 g
b10000000000000000010010011 d
1"
#80
0"
#85
0+
b0 &
b0 5
b0 i
b100000 /
0S
1P
1.
b100000 F
b0 M
b0 L
b0 J
b0 B
1N
0T
0R
1O
b100000 *
b100000 ,
b11 g
b0 f
b100000 V
b111111111111111111111111111100000 K
b0 H
b0 e
b100 !
b100 (
b100 c
1"
#90
0"
#95
0.
b1 k
1%
b100 )
b100 7
b100 h
b101 !
b101 (
b101 c
b1001 g
b1000 2
b100 1
b100 b
1"
#100
0"
#105
b10011 9
0%
b1 g
b110 !
b110 (
b110 c
b1010000000000000100010011 '
b1010000000000000100010011 6
b1010000000000000100010011 m
1"
#110
0"
#115
b10100 /
b10100 F
b111111111111111111111111111101100 K
b10100 *
b10100 ,
b10100 V
b10100 G
b10 0
b0 @
b10100 Q
b10 U
b10 I
b111 !
b111 (
b111 c
b10 g
b1010000000000000100010011 d
1"
#120
0"
#125
b0xxxxxxxx &
b0xxxxxxxx 5
b0xxxxxxxx i
1.
b0xxxxxxxx M
b0xxxxxxxx L
b0xxxxxxxx J
bx B
b11 g
bx f
b1000 !
b1000 (
b1000 c
1"
#130
0"
#135
0.
b10 k
1%
b1000 )
b1000 7
b1000 h
b1001 !
b1001 (
b1001 c
b1001 g
b1100 2
b1000 1
b1000 b
1"
#140
0"
#145
b10010011 9
0%
b1 g
b1010 !
b1010 (
b1010 c
b10100000000000001010010011 '
b10100000000000001010010011 6
b10100000000000001010010011 m
1"
#150
0"
#155
b101000 /
b101000 F
b111111111111111111111111111011000 K
b101000 *
b101000 ,
b101000 V
b101000 G
b101 0
b1 @
b101000 Q
b100000100100 U
b100101 I
b1011 !
b1011 (
b1011 c
b10 g
b10100000000000001010010011 d
1"
#160
0"
#165
1.
b11 g
b1100 !
b1100 (
b1100 c
1"
#170
0"
#175
0.
b11 k
1%
b1100 )
b1100 7
b1100 h
b1101 !
b1101 (
b1101 c
b1001 g
b10000 2
b1100 1
b1100 b
1"
#180
0"
#185
b10110011 9
0%
b1 g
b1110 !
b1110 (
b1110 c
b1000001000000110110011 '
b1000001000000110110011 6
b1000001000000110110011 m
1"
#190
0"
#195
x+
xS
xP
bx /
xN
xT
xR
xO
bx F
bx K
bx *
bx ,
bx V
bx G
1<
0>
b1100 3
b11 0
b0 @
b10 Q
b100000000010 U
b11 I
b1111 !
b1111 (
b1111 c
b10 g
b1000001000000110110011 d
1"
#200
0"
#205
0+
1S
0P
b110100 /
1N
0T
1R
0O
b10100 &
b10100 5
b10100 i
1.
b110100 F
b1100 K
b110100 ,
b110100 V
b10100 G
b10100 M
b10100 L
b10100 J
b10100 B
b110100 *
b11 g
b10100 f
b100000 H
b100000 e
b10000 !
b10000 (
b10000 c
1"
#210
0"
#215
0.
b100 k
1%
b10000 )
b10000 7
b10000 h
b10001 !
b10001 (
b10001 c
b1001 g
b10100 2
b10000 1
b10000 b
1"
#220
0"
#225
b100011 9
0%
b1 g
b10010 !
b10010 (
b10010 c
b1100101010000000100011 '
b1100101010000000100011 6
b1100101010000000100011 m
1"
#230
0"
#235
b100000 K
b100000 *
b100000 ,
b100000 F
b0 /
b100000 V
b0 G
0<
1;
b1000 3
b0 0
b10 A
b11 Q
b0 U
b0 I
b10011 !
b10011 (
b10011 c
b10 g
b1100101010000000100011 d
1"
#240
0"
#245
b101000 F
b110100 &
b110100 5
b110100 i
b110100 M
b110100 L
b110100 J
b110100 B
b101000 *
b101000 ,
b11 g
b110100 f
b101000 V
b101000 K
b101000 H
b101000 e
b10100 !
b10100 (
b10100 c
1"
#250
0"
#255
b101000 8
1-
b1010 k
b1 $
b1 4
b1 j
b101000 )
b101000 7
b101000 h
b10101 !
b10101 (
b10101 c
b101 g
b11000 2
b10100 1
b10100 b
1"
#260
0"
#265
b10 $
b10 4
b10 j
b110 g
b10110 !
b10110 (
b10110 c
1"
#270
0"
#275
b100 $
b100 4
b100 j
b10111 !
b10111 (
b10111 c
b111 g
1"
#280
0"
#285
b1000 $
b1000 4
b1000 j
b1000 g
b11000 !
b11000 (
b11000 c
1"
#290
0"
#295
0-
b0 $
b0 4
b0 j
b11001 !
b11001 (
b11001 c
b1010 g
1"
#300
0"
#305
b101 k
b10100 )
b10100 7
b10100 h
b0 8
1%
b1001 g
b11010 !
b11010 (
b11010 c
1"
#310
0"
#315
b11 9
0%
b101010001000000011 '
b101010001000000011 6
b101010001000000011 m
b11011 !
b11011 (
b11011 c
b1 g
1"
#320
0"
#325
b101000 F
b101000 K
b101000 *
b101000 ,
b11 /
b101000 V
b0 G
0;
1=
b0 3
b100 0
b0 Q
b100 U
b100 I
b10 g
b101010001000000011 d
b11100 !
b11100 (
b11100 c
1"
#330
0"
#335
b0 &
b0 5
b0 i
b0 M
b0 L
b0 J
b0 B
b11101 !
b11101 (
b11101 c
b11 g
b0 f
1"
#340
0"
#345
b101000 8
1%
b101010001000000011 /
1-
b101010001000000011 9
b1010 k
b101000 )
b101000 7
b101000 h
b101 g
b11100 2
b11000 1
b11000 b
b11110 !
b11110 (
b11110 c
1"
#350
0"
#355
b110100 /
b110100 9
b110100 '
b110100 6
b110100 m
b11111 !
b11111 (
b11111 c
b110 g
1"
#360
0"
#365
b111 g
b100000 !
b100000 (
b100000 c
1"
#370
0"
#375
b100001 !
b100001 (
b100001 c
b1000 g
1"
#380
0"
#385
0%
1.
0-
b1010 g
b100010 !
b100010 (
b100010 c
1"
#390
0"
#395
b110 k
b11000 )
b11000 7
b11000 h
b0 8
0.
1%
b100011 !
b100011 (
b100011 c
b1001 g
1"
#400
0"
#405
b1110011 /
b1110011 9
0%
b1 g
b100100 !
b100100 (
b100100 c
b100000000000001110011 '
b100000000000001110011 6
b100000000000001110011 m
1"
#410
0"
#415
b0 F
b101000 K
b101000 *
b101000 ,
b0 /
b101000 V
b0 G
1:
0=
b11100 3
b0 0
b0 A
b1 Q
b0 U
b0 I
b100101 !
b100101 (
b100101 c
b10 g
b100000000000001110011 d
1"
#420
0"
#425
1+
b100000 &
b100000 5
b100000 i
b100000 M
b100000 L
b100000 J
b100000 B
0N
1T
b0 *
b0 ,
b100 g
b100000 f
b0 V
b0 K
b0 H
b0 e
b100110 !
b100110 (
b100110 c
1"
