Lab04_Store_type/test.vcd
$date
	Sun Apr 20 21:49:42 2025
$end
$version
	Icarus Verilog
$end
$timescale
	1s
$end
$scope module top_test $end
$var wire 32 ! cycle [31:0] $end
$var reg 1 " clk $end
$var reg 1 # rst $end
$scope module dut $end
$var wire 1 " clk $end
$var wire 1 # rst $end
$var wire 4 $ wstrb [3:0] $end
$var wire 1 % rstrb $end
$var wire 32 & mem_wdata [31:0] $end
$var wire 32 ' mem_rdata [31:0] $end
$var wire 32 ( cycle [31:0] $end
$var wire 32 ) addr [31:0] $end
$scope module cpu0 $end
$var wire 32 * OR [31:0] $end
$var wire 1 + TAKE_BRANCH $end
$var wire 32 , XOR [31:0] $end
$var wire 1 " clk $end
$var wire 1 - load_store_state_flag $end
$var wire 1 # rst $end
$var wire 1 . write_reg_en $end
$var wire 32 / write_reg_data [31:0] $end
$var wire 5 0 rd [4:0] $end
$var wire 32 1 pcplusimm [31:0] $end
$var wire 32 2 pcplus4 [31:0] $end
$var wire 5 3 opcode [4:0] $end
$var wire 4 4 mem_wstrb [3:0] $end
$var wire 32 5 mem_wdata [31:0] $end
$var wire 1 % mem_rstrb $end
$var wire 32 6 mem_rdata [31:0] $end
$var wire 32 7 mem_addr [31:0] $end
$var wire 32 8 load_store_addr [31:0] $end
$var wire 1 9 isSystype $end
$var wire 1 : isStype $end
$var wire 1 ; isRtype $end
$var wire 1 < isItype $end
$var wire 1 = isBtype $end
$var wire 7 > funct7 [6:0] $end
$var wire 3 ? funct3 [2:0] $end
$var wire 8 @ byte4_data [7:0] $end
$var wire 8 A byte3_data [7:0] $end
$var wire 8 B byte2_data [7:0] $end
$var wire 8 C byte1_data [7:0] $end
$var wire 32 D alu_result [31:0] $end
$var wire 32 E alu_in2 [31:0] $end
$var wire 32 F alu_in1 [31:0] $end
$var wire 32 G S_data [31:0] $end
$var wire 32 H SW_data [31:0] $end
$var wire 33 I SUB [32:0] $end
$var wire 32 J SH_data [31:0] $end
$var wire 32 K SB_data [31:0] $end
$var wire 1 L NEQUAL $end
$var wire 1 M LESS_THAN_U $end
$var wire 1 N LESS_THAN $end
$var wire 32 O I_data [31:0] $end
$var wire 1 P GREATER_THAN_U $end
$var wire 1 Q GREATER_THAN $end
$var wire 1 R EQUAL $end
$var wire 32 S B_data [31:0] $end
$var wire 32 T ADD [31:0] $end
$var parameter 32 U BYTE1 $end
$var parameter 32 V BYTE2 $end
$var parameter 32 W BYTE3 $end
$var parameter 32 X BYTE4 $end
$var parameter 32 Y DECODE $end
$var parameter 32 Z EXECUTE $end
$var parameter 32 [ FETCH $end
$var parameter 32 \ HLT $end
$var parameter 32 ] RESET $end
$var parameter 32 ^ WAIT $end
$var parameter 32 _ WAIT_LOADING $end
$var reg 32 ` addr [31:0] $end
$var reg 32 a cycle [31:0] $end
$var reg 32 b data [31:0] $end
$var reg 32 c data_rs1 [31:0] $end
$var reg 32 d data_rs2 [31:0] $end
$var reg 4 e state [3:0] $end
$upscope $end
$scope module mem0 $end
$var wire 32 f addr [31:0] $end
$var wire 1 " clk $end
$var wire 32 g data_in [31:0] $end
$var wire 1 % rd_strobe $end
$var wire 1 # rst $end
$var wire 4 h wr_strobe [3:0] $end
$var wire 30 i mem_loc [29:0] $end
$var parameter 32 j MEM_SIZE $end
$var reg 32 k data_out [31:0] $end
$upscope $end
$upscope $end
$upscope $end
$enddefinitions $end
$comment Show the parameter values. $end
$dumpall
b10000000000 j
b1010 _
b1001 ^
b0 ]
b100 \
b1 [
b11 Z
b10 Y
b1000 X
b111 W
b110 V
b101 U
$end
#0
$dumpvars
bx k
b0 i
b0 h
b0xxxxxxxx g
b0 f
b0 e
bx d
bx c
bx b
b0 a
b0 `
bx T
bx0 S
xR
xQ
xP
bx O
xN
xM
xL
b0xxxxxxxx K
b0xxxxxxxxxxxxxxxx J
bx I
bx H
bx G
bx F
bx E
bx D
bx C
bx B
bx A
bx @
bx ?
bx >
x=
x<
x;
x:
x9
b0 8
b0 7
bx 6
b0xxxxxxxx 5
b0 4
bx 3
b100 2
bx 1
bx 0
bx /
0.
0-
bx ,
x+
bx *
b0 )
b0 (
bx '
b0xxxxxxxx &
0%
b0 $
1#
0"
b0 !
$end
#5
b0 D
b0 /
b0 C
b0 B
b0xxxxxxxx J
b0xxxxxxxx H
b0 A
b0 E
b0 1
0;
0<
09
0=
0:
b0 3
b0 0
b0 ?
b0 >
b0 O
b0 S
b0 G
b0 b
b0 '
b0 6
b0 k
1"
#10
0"
#15
1"
#20
0"
#25
1"
#30
0"
#35
1"
#40
0"
#45
1"
#50
0"
0#
#55
b1 !
b1 (
b1 a
1%
b1001 e
1"
#60
0"
#65
0%
b1 e
b10 !
b10 (
b10 a
b10000000000000000010010011 '
b10000000000000000010010011 6
b10000000000000000010010011 k
1"
#70
0"
#75
bx /
bx D
bx1xxxxx *
b100000 E
1<
b100 3
b1 0
b1 >
b100000 O
b100000100000 S
b100001 G
b11 !
b11 (
b11 a
b10 e
b10000000000000000010010011 b
1"
#80
0"
#85
0+
b0 &
b0 5
b0 g
b100000 /
0Q
1N
b100000 D
1.
b0 K
b0 J
b0 H
b0 @
1L
0R
0P
1M
b100000 *
b100000 ,
b11 e
b0 d
b100000 T
b111111111111111111111111111100000 I
b0 F
b0 c
b100 !
b100 (
b100 a
1"
#90
0"
#95
b1 i
0.
b100 )
b100 7
b100 f
b101 !
b101 (
b101 a
1%
b1001 e
b1000 2
b100 1
b100 `
1"
#100
0"
#105
0%
b1 e
b110 !
b110 (
b110 a
b1010000000000000100010011 '
b1010000000000000100010011 6
b1010000000000000100010011 k
1"
#110
0"
#115
b10100 /
b10100 D
b111111111111111111111111111101100 I
b10100 *
b10100 ,
b10100 T
b10100 E
b10 0
b0 >
b10100 O
b10 S
b10 G
b111 !
b111 (
b111 a
b10 e
b1010000000000000100010011 b
1"
#120
0"
#125
b0xxxxxxxx &
b0xxxxxxxx 5
b0xxxxxxxx g
1.
b0xxxxxxxx K
b0xxxxxxxx J
b0xxxxxxxx H
bx @
b11 e
bx d
b1000 !
b1000 (
b1000 a
1"
#130
0"
#135
b10 i
0.
b1000 )
b1000 7
b1000 f
b1001 !
b1001 (
b1001 a
1%
b1001 e
b1100 2
b1000 1
b1000 `
1"
#140
0"
#145
0%
b1 e
b1010 !
b1010 (
b1010 a
b1000001000000110110011 '
b1000001000000110110011 6
b1000001000000110110011 k
1"
#150
0"
#155
x+
xQ
xN
bx /
xL
xR
xP
xM
bx D
bx I
bx *
bx ,
bx T
bx E
1;
0<
b1100 3
b11 0
b10 O
b100000000010 S
b11 G
b1011 !
b1011 (
b1011 a
b10 e
b1000001000000110110011 b
1"
#160
0"
#165
0+
1Q
0N
b110100 /
1L
0R
1P
0M
b10100 &
b10100 5
b10100 g
b110100 D
b1100 I
b110100 ,
1.
b110100 T
b10100 E
b10100 K
b10100 J
b10100 H
b10100 @
b110100 *
b11 e
b10100 d
b100000 F
b100000 c
b1100 !
b1100 (
b1100 a
1"
#170
0"
#175
b11 i
0.
b1100 )
b1100 7
b1100 f
b1101 !
b1101 (
b1101 a
1%
b1001 e
b10000 2
b1100 1
b1100 `
1"
#180
0"
#185
0%
b1 e
b1110 !
b1110 (
b1110 a
b10001100000010010000100011 '
b10001100000010010000100011 6
b10001100000010010000100011 k
1"
#190
0"
#195
0Q
1N
0P
1M
b111111111111111111111111111111000 I
b101000 *
b1000 ,
b1001000 D
b0 /
b1001000 T
b101000 E
0;
1:
b1000 3
b1000 0
b10 ?
b1 >
b100011 O
b101000 S
b101000 G
b1111 !
b1111 (
b1111 a
b10 e
b10001100000010010000100011 b
1"
#200
0"
#205
b101000 D
b110100 &
b110100 5
b110100 g
b110100 K
b110100 J
b110100 H
b110100 @
b101000 ,
b11 e
b110100 d
b101000 T
b111111111111111111111111111011000 I
b0 F
b0 c
b10000 !
b10000 (
b10000 a
1"
#210
0"
#215
b101000 8
1-
b1010 i
b1 $
b1 4
b1 h
b101000 )
b101000 7
b101000 f
b10001 !
b10001 (
b10001 a
b101 e
b10100 2
b10000 1
b10000 `
1"
#220
0"
#225
b10 $
b10 4
b10 h
b110 e
b10010 !
b10010 (
b10010 a
1"
#230
0"
#235
b100 $
b100 4
b100 h
b10011 !
b10011 (
b10011 a
b111 e
1"
#240
0"
#245
b1000 $
b1000 4
b1000 h
b1000 e
b10100 !
b10100 (
b10100 a
1"
#250
0"
#255
0-
b0 $
b0 4
b0 h
b10101 !
b10101 (
b10101 a
b1010 e
1"
#260
0"
#265
b100 i
b10000 )
b10000 7
b10000 f
b0 8
1%
b1001 e
b10110 !
b10110 (
b10110 a
1"
#270
0"
#275
b100000000000001110011 '
b100000000000001110011 6
b100000000000001110011 k
b10111 !
b10111 (
b10111 a
0%
b1 e
1"
#280
0"
#285
1+
b0 D
1Q
0N
0L
1R
1P
0M
b0 I
b0 *
b0 ,
b0 T
b0 E
19
0:
b11100 3
b0 0
b0 ?
b0 >
b1 O
b0 S
b0 G
b10 e
b100000000000001110011 b
b11000 !
b11000 (
b11000 a
1"
#290
0"
#295
b100000 &
b100000 5
b100000 g
b100000 K
b100000 J
b100000 H
b100000 @
b11001 !
b11001 (
b11001 a
b100 e
b100000 d
1"
