Lab03_Rtype_Itype_Btype/test.vcd
$date
	Sun Apr 20 17:34:49 2025
$end
$version
	Icarus Verilog
$end
$timescale
	1s
$end
$scope module top_test $end
$var wire 32 ! cycle [31:0] $end
$var reg 1 " clk $end
$var reg 1 # rst $end
$scope module dut $end
$var wire 1 " clk $end
$var wire 1 # rst $end
$var wire 1 $ rstrb $end
$var wire 32 % mem_rdata [31:0] $end
$var wire 32 & cycle [31:0] $end
$var wire 32 ' addr [31:0] $end
$scope module cpu0 $end
$var wire 32 ( OR [31:0] $end
$var wire 1 ) TAKE_BRANCH $end
$var wire 32 * XOR [31:0] $end
$var wire 1 " clk $end
$var wire 32 + mem_addr [31:0] $end
$var wire 1 # rst $end
$var wire 1 , write_reg_en $end
$var wire 32 - write_reg_data [31:0] $end
$var wire 5 . rd [4:0] $end
$var wire 32 / pcplusimm [31:0] $end
$var wire 32 0 pcplus4 [31:0] $end
$var wire 5 1 opcode [4:0] $end
$var wire 1 $ mem_rstrb $end
$var wire 32 2 mem_rdata [31:0] $end
$var wire 1 3 isSystype $end
$var wire 1 4 isRtype $end
$var wire 1 5 isItype $end
$var wire 1 6 isBtype $end
$var wire 7 7 funct7 [6:0] $end
$var wire 3 8 funct3 [2:0] $end
$var wire 32 9 alu_result [31:0] $end
$var wire 32 : alu_in2 [31:0] $end
$var wire 32 ; alu_in1 [31:0] $end
$var wire 33 < SUB [32:0] $end
$var wire 1 = NEQUAL $end
$var wire 1 > LESS_THAN_U $end
$var wire 1 ? LESS_THAN $end
$var wire 32 @ I_data [31:0] $end
$var wire 1 A GREATER_THAN_U $end
$var wire 1 B GREATER_THAN $end
$var wire 1 C EQUAL $end
$var wire 32 D B_data [31:0] $end
$var wire 32 E ADD [31:0] $end
$var parameter 32 F BYTE1 $end
$var parameter 32 G BYTE2 $end
$var parameter 32 H BYTE3 $end
$var parameter 32 I BYTE4 $end
$var parameter 32 J DECODE $end
$var parameter 32 K EXECUTE $end
$var parameter 32 L FETCH $end
$var parameter 32 M HLT $end
$var parameter 32 N RESET $end
$var parameter 32 O WAIT $end
$var parameter 32 P WAIT_LOADING $end
$var reg 32 Q addr [31:0] $end
$var reg 32 R cycle [31:0] $end
$var reg 32 S data [31:0] $end
$var reg 32 T data_rs1 [31:0] $end
$var reg 32 U data_rs2 [31:0] $end
$var reg 4 V state [3:0] $end
$upscope $end
$scope module mem0 $end
$var wire 32 W addr [31:0] $end
$var wire 1 " clk $end
$var wire 32 X data_in [31:0] $end
$var wire 1 $ rd_strobe $end
$var wire 1 # rst $end
$var wire 4 Y wr_strobe [3:0] $end
$var wire 30 Z mem_loc [29:0] $end
$var parameter 32 [ MEM_SIZE $end
$var reg 32 \ data_out [31:0] $end
$upscope $end
$upscope $end
$upscope $end
$enddefinitions $end
$comment Show the parameter values. $end
$dumpall
b10000000000 [
b1010 P
b1001 O
b0 N
b100 M
b1 L
b11 K
b10 J
b1000 I
b111 H
b110 G
b101 F
$end
#0
$dumpvars
bx \
b0 Z
bz Y
bz X
b0 W
b0 V
bx U
bx T
bx S
b0 R
b0 Q
bx E
bx0 D
xC
xB
xA
bx @
x?
x>
x=
bx <
bx ;
bx :
bx 9
bx 8
bx 7
x6
x5
x4
x3
bx 2
bx 1
b100 0
bx /
bx .
bx -
0,
b0 +
bx *
x)
bx (
b0 '
b0 &
bx %
0$
1#
0"
b0 !
$end
#5
b0 9
b0 -
b0 :
b0 /
04
05
03
06
b0 1
b0 .
b0 8
b0 7
b0 @
b0 D
b0 S
b0 %
b0 2
b0 \
1"
#10
0"
#15
1"
#20
0"
#25
1"
#30
0"
#35
1"
#40
0"
#45
1"
#50
0"
0#
#55
b1 !
b1 &
b1 R
1$
b1001 V
1"
#60
0"
#65
0$
b1 V
b10 !
b10 &
b10 R
b11111111011000000000000010010011 %
b11111111011000000000000010010011 2
b11111111011000000000000010010011 \
1"
#70
0"
#75
bx -
bx 9
b1111111111111111111111111111x11x (
b11111111111111111111111111110110 :
15
b100 1
b1 .
b1111111 7
b11111111111111111111111111110110 @
b11111111111111111111111111100000 D
b11 !
b11 &
b11 R
b10 V
b11111111011000000000000010010011 S
1"
#80
0"
#85
0)
b11111111111111111111111111110110 -
1B
0?
b11111111111111111111111111110110 9
1,
1=
0C
0A
1>
b11111111111111111111111111110110 (
b11111111111111111111111111110110 *
b11 V
b11111111111111111111111111110110 E
b100000000000000000000000000001010 <
b0 ;
b0 T
b100 !
b100 &
b100 R
1"
#90
0"
#95
0,
b1 Z
b101 !
b101 &
b101 R
1$
b1001 V
b1000 0
b100 /
b100 '
b100 +
b100 W
b100 Q
1"
#100
0"
#105
0$
b1 V
b110 !
b110 &
b110 R
b10100000000000100010011 %
b10100000000000100010011 2
b10100000000000100010011 \
1"
#110
0"
#115
0B
1?
b101 -
b101 9
b111111111111111111111111111111011 <
b101 (
b101 *
b101 E
b101 :
b10 .
b0 7
b101 @
b10 D
b111 !
b111 &
b111 R
b10 V
b10100000000000100010011 S
1"
#120
0"
#125
1,
b11 V
b1000 !
b1000 &
b1000 R
1"
#130
0"
#135
0,
b10 Z
b1001 !
b1001 &
b1001 R
1$
b1001 V
b1100 0
b1000 /
b1000 '
b1000 +
b1000 W
b1000 Q
1"
#140
0"
#145
0$
b1 V
b1010 !
b1010 &
b1010 R
b110010011 %
b110010011 2
b110010011 \
1"
#150
0"
#155
1)
b0 -
1B
0?
b0 9
0=
1C
1A
0>
b0 <
b0 (
b0 *
b0 E
b0 :
b11 .
b0 @
b100000000010 D
b1011 !
b1011 &
b1011 R
b10 V
b110010011 S
1"
#160
0"
#165
1,
b11 V
b0 U
b1100 !
b1100 &
b1100 R
1"
#170
0"
#175
0,
b11 Z
b1101 !
b1101 &
b1101 R
1$
b1001 V
b10000 0
b1100 /
b1100 '
b1100 +
b1100 W
b1100 Q
1"
#180
0"
#185
0$
b1 V
b1110 !
b1110 &
b1110 R
b1000010011 %
b1000010011 2
b1000010011 \
1"
#190
0"
#195
b100 .
b100 D
b1111 !
b1111 &
b1111 R
b10 V
b1000010011 S
1"
#200
0"
#205
1,
b11 V
b10000 !
b10000 &
b10000 R
1"
#210
0"
#215
0,
b100 Z
b10001 !
b10001 &
b10001 R
1$
b1001 V
b10100 0
b10000 /
b10000 '
b10000 +
b10000 W
b10000 Q
1"
#220
0"
#225
0$
b1 V
b10010 !
b10010 &
b10010 R
b100011000000110110011 %
b100011000000110110011 2
b100011000000110110011 \
1"
#230
0"
#235
1)
1B
0?
0=
1C
1A
0>
b0 <
b0 (
b0 *
b0 E
b0 :
14
05
b1100 1
b11 .
b1 @
b100000000010 D
b10011 !
b10011 &
b10011 R
b10 V
b100011000000110110011 S
1"
#240
0"
#245
0)
b11111111111111111111111111110110 -
1=
0C
0A
1>
b11111111111111111111111111110110 9
b100000000000000000000000000001010 <
b11111111111111111111111111110110 (
b11111111111111111111111111110110 *
1,
b11111111111111111111111111110110 E
b11111111111111111111111111110110 :
b11 V
b11111111111111111111111111110110 U
b10100 !
b10100 &
b10100 R
1"
#250
0"
#255
0,
b101 Z
b10101 !
b10101 &
b10101 R
1$
b1001 V
b11000 0
b10100 /
b10100 '
b10100 +
b10100 W
b10100 Q
1"
#260
0"
#265
0$
b1 V
b10110 !
b10110 &
b10110 R
b100100000001000010011 %
b100100000001000010011 2
b100100000001000010011 \
1"
#270
0"
#275
0B
1?
b1 -
b1 9
b111111111111111111111111111111111 <
b1 (
b1 *
b1 E
b1 :
04
15
b100 1
b100 .
b100 D
b10111 !
b10111 &
b10111 R
b10 V
b100100000001000010011 S
1"
#280
0"
#285
1,
b11 V
b11000 !
b11000 &
b11000 R
1"
#290
0"
#295
0,
b110 Z
b11001 !
b11001 &
b11001 R
1$
b1001 V
b11100 0
b11000 /
b11000 '
b11000 +
b11000 W
b11000 Q
1"
#300
0"
#305
0$
b1 V
b11010 !
b11010 &
b11010 R
b11111110001000100001110011100011 %
b11111110001000100001110011100011 2
b11111110001000100001110011100011 \
1"
#310
0"
#315
1)
1B
0?
b0 9
b0 -
b100000000000000000000000000001010 <
b11111111111111111111111111110110 (
b11111111111111111111111111110110 *
b10000 /
b11111111111111111111111111110110 E
b11111111111111111111111111110110 :
05
16
b11000 1
b11001 .
b1 8
b1111111 7
b11111111111111111111111111100010 @
b11111111111111111111111111111000 D
b11011 !
b11011 &
b11011 R
b10 V
b11111110001000100001110011100011 S
1"
#320
0"
#325
0B
1?
b101 :
b101 (
b100 *
b11 V
b101 U
b110 E
b111111111111111111111111111111100 <
b1 ;
b1 T
b11100 !
b11100 &
b11100 R
1"
#330
0"
#335
b100 Z
b11101 !
b11101 &
b11101 R
1$
b1001 V
b10100 0
b1000 /
b10000 '
b10000 +
b10000 W
b10000 Q
1"
#340
0"
#345
0$
b1 V
b11110 !
b11110 &
b11110 R
b100011000000110110011 %
b100011000000110110011 2
b100011000000110110011 \
1"
#350
0"
#355
0)
b110 -
b110 9
b10000 /
14
06
b1100 1
b11 .
b0 8
b0 7
b1 @
b100000000010 D
b11111 !
b11111 &
b11111 R
b10 V
b100011000000110110011 S
1"
#360
0"
#365
1)
1B
0?
0=
1C
b11111111111111111111111111101100 -
1,
b11111111111111111111111111110110 :
b11111111111111111111111111101100 9
1A
0>
b11111111111111111111111111110110 (
b0 *
b11 V
b11111111111111111111111111110110 U
b11111111111111111111111111101100 E
b0 <
b11111111111111111111111111110110 ;
b11111111111111111111111111110110 T
b100000 !
b100000 &
b100000 R
1"
#370
0"
#375
0,
b101 Z
b100001 !
b100001 &
b100001 R
1$
b1001 V
b11000 0
b10100 /
b10100 '
b10100 +
b10100 W
b10100 Q
1"
#380
0"
#385
0$
b1 V
b100010 !
b100010 &
b100010 R
b100100000001000010011 %
b100100000001000010011 2
b100100000001000010011 \
1"
#390
0"
#395
0)
0B
1?
b11111111111111111111111111110111 -
b11111111111111111111111111110111 9
1=
0C
b11111111111111111111111111110101 <
b11111111111111111111111111110111 (
b11111111111111111111111111110111 *
b11111111111111111111111111110111 E
b1 :
04
15
b100 1
b100 .
b100 D
b100011 !
b100011 &
b100011 R
b10 V
b100100000001000010011 S
1"
#400
0"
#405
1)
b10 -
b10 9
1B
0?
1,
0=
1C
b1 (
b0 *
b11 V
b10 E
b0 <
b1 ;
b1 T
b100100 !
b100100 &
b100100 R
1"
#410
0"
#415
0,
b110 Z
b100101 !
b100101 &
b100101 R
1$
b1001 V
b11100 0
b11000 /
b11000 '
b11000 +
b11000 W
b11000 Q
1"
#420
0"
#425
0$
b1 V
b100110 !
b100110 &
b100110 R
b11111110001000100001110011100011 %
b11111110001000100001110011100011 2
b11111110001000100001110011100011 \
1"
#430
0"
#435
1)
b0 9
1=
0C
0A
1>
b0 -
b100000000000000000000000000001011 <
b11111111111111111111111111110111 (
b11111111111111111111111111110111 *
b10000 /
b11111111111111111111111111110111 E
b11111111111111111111111111110110 :
05
16
b11000 1
b11001 .
b1 8
b1111111 7
b11111111111111111111111111100010 @
b11111111111111111111111111111000 D
b100111 !
b100111 &
b100111 R
b10 V
b11111110001000100001110011100011 S
1"
#440
0"
#445
0B
1?
b101 :
b111 (
b111 *
b11 V
b101 U
b111 E
b111111111111111111111111111111101 <
b10 ;
b10 T
b101000 !
b101000 &
b101000 R
1"
#450
0"
#455
b100 Z
b101001 !
b101001 &
b101001 R
1$
b1001 V
b10100 0
b1000 /
b10000 '
b10000 +
b10000 W
b10000 Q
1"
#460
0"
#465
0$
b1 V
b101010 !
b101010 &
b101010 R
b100011000000110110011 %
b100011000000110110011 2
b100011000000110110011 \
1"
#470
0"
#475
0)
b111 -
b111 9
b10000 /
14
06
b1100 1
b11 .
b0 8
b0 7
b1 @
b100000000010 D
b101011 !
b101011 &
b101011 R
b10 V
b100011000000110110011 S
1"
#480
0"
#485
b11111111111111111111111111100010 -
1,
b11111111111111111111111111110110 :
b11111111111111111111111111100010 9
0A
1>
b11111111111111111111111111111110 (
b11010 *
b11 V
b11111111111111111111111111110110 U
b11111111111111111111111111100010 E
b111111111111111111111111111110110 <
b11111111111111111111111111101100 ;
b11111111111111111111111111101100 T
b101100 !
b101100 &
b101100 R
1"
#490
0"
#495
0,
b101 Z
b101101 !
b101101 &
b101101 R
1$
b1001 V
b11000 0
b10100 /
b10100 '
b10100 +
b10100 W
b10100 Q
1"
#500
0"
#505
0$
b1 V
b101110 !
b101110 &
b101110 R
b100100000001000010011 %
b100100000001000010011 2
b100100000001000010011 \
1"
#510
0"
#515
b11111111111111111111111111101101 -
b11111111111111111111111111101101 9
1A
0>
b11111111111111111111111111101011 <
b11111111111111111111111111101101 (
b11111111111111111111111111101101 *
b11111111111111111111111111101101 E
b1 :
04
15
b100 1
b100 .
b100 D
b101111 !
b101111 &
b101111 R
b10 V
b100100000001000010011 S
1"
#520
0"
#525
b11 -
b11 9
1B
0?
1,
b11 (
b11 *
b11 V
b11 E
b1 <
b10 ;
b10 T
b110000 !
b110000 &
b110000 R
1"
#530
0"
#535
0,
b110 Z
b110001 !
b110001 &
b110001 R
1$
b1001 V
b11100 0
b11000 /
b11000 '
b11000 +
b11000 W
b11000 Q
1"
#540
0"
#545
0$
b1 V
b110010 !
b110010 &
b110010 R
b11111110001000100001110011100011 %
b11111110001000100001110011100011 2
b11111110001000100001110011100011 \
1"
#550
0"
#555
1)
b0 9
0A
1>
b0 -
b100000000000000000000000000001100 <
b11111111111111111111111111110110 (
b11111111111111111111111111110100 *
b10000 /
b11111111111111111111111111111000 E
b11111111111111111111111111110110 :
05
16
b11000 1
b11001 .
b1 8
b1111111 7
b11111111111111111111111111100010 @
b11111111111111111111111111111000 D
b110011 !
b110011 &
b110011 R
b10 V
b11111110001000100001110011100011 S
1"
#560
0"
#565
0B
1?
b101 :
b111 (
b110 *
b11 V
b101 U
b1000 E
b111111111111111111111111111111110 <
b11 ;
b11 T
b110100 !
b110100 &
b110100 R
1"
#570
0"
#575
b100 Z
b110101 !
b110101 &
b110101 R
1$
b1001 V
b10100 0
b1000 /
b10000 '
b10000 +
b10000 W
b10000 Q
1"
#580
0"
#585
0$
b1 V
b110110 !
b110110 &
b110110 R
b100011000000110110011 %
b100011000000110110011 2
b100011000000110110011 \
1"
#590
0"
#595
0)
b1000 -
b1000 9
b10000 /
14
06
b1100 1
b11 .
b0 8
b0 7
b1 @
b100000000010 D
b110111 !
b110111 &
b110111 R
b10 V
b100011000000110110011 S
1"
#600
0"
#605
b11111111111111111111111111011000 -
1,
b11111111111111111111111111110110 :
b11111111111111111111111111011000 9
0A
1>
b11111111111111111111111111110110 (
b10100 *
b11 V
b11111111111111111111111111110110 U
b11111111111111111111111111011000 E
b111111111111111111111111111101100 <
b11111111111111111111111111100010 ;
b11111111111111111111111111100010 T
b111000 !
b111000 &
b111000 R
1"
#610
0"
#615
0,
b101 Z
b111001 !
b111001 &
b111001 R
1$
b1001 V
b11000 0
b10100 /
b10100 '
b10100 +
b10100 W
b10100 Q
1"
#620
0"
#625
0$
b1 V
b111010 !
b111010 &
b111010 R
b100100000001000010011 %
b100100000001000010011 2
b100100000001000010011 \
1"
#630
0"
#635
b11111111111111111111111111100011 -
b11111111111111111111111111100011 9
1A
0>
b11111111111111111111111111100001 <
b11111111111111111111111111100011 (
b11111111111111111111111111100011 *
b11111111111111111111111111100011 E
b1 :
04
15
b100 1
b100 .
b100 D
b111011 !
b111011 &
b111011 R
b10 V
b100100000001000010011 S
1"
#640
0"
#645
b100 -
b100 9
1B
0?
1,
b11 (
b10 *
b11 V
b100 E
b10 <
b11 ;
b11 T
b111100 !
b111100 &
b111100 R
1"
#650
0"
#655
0,
b110 Z
b111101 !
b111101 &
b111101 R
1$
b1001 V
b11100 0
b11000 /
b11000 '
b11000 +
b11000 W
b11000 Q
1"
#660
0"
#665
0$
b1 V
b111110 !
b111110 &
b111110 R
b11111110001000100001110011100011 %
b11111110001000100001110011100011 2
b11111110001000100001110011100011 \
1"
#670
0"
#675
1)
b0 9
0A
1>
b0 -
b100000000000000000000000000001101 <
b11111111111111111111111111110111 (
b11111111111111111111111111110101 *
b10000 /
b11111111111111111111111111111001 E
b11111111111111111111111111110110 :
05
16
b11000 1
b11001 .
b1 8
b1111111 7
b11111111111111111111111111100010 @
b11111111111111111111111111111000 D
b111111 !
b111111 &
b111111 R
b10 V
b11111110001000100001110011100011 S
1"
#680
0"
#685
0B
1?
b101 :
b101 (
b1 *
b11 V
b101 U
b1001 E
b111111111111111111111111111111111 <
b100 ;
b100 T
b1000000 !
b1000000 &
b1000000 R
1"
#690
0"
#695
b100 Z
b1000001 !
b1000001 &
b1000001 R
1$
b1001 V
b10100 0
b1000 /
b10000 '
b10000 +
b10000 W
b10000 Q
1"
#700
0"
#705
0$
b1 V
b1000010 !
b1000010 &
b1000010 R
b100011000000110110011 %
b100011000000110110011 2
b100011000000110110011 \
1"
#710
0"
#715
0)
b1001 -
b1001 9
b10000 /
14
06
b1100 1
b11 .
b0 8
b0 7
b1 @
b100000000010 D
b1000011 !
b1000011 &
b1000011 R
b10 V
b100011000000110110011 S
1"
#720
0"
#725
b11111111111111111111111111001110 -
1,
b11111111111111111111111111110110 :
b11111111111111111111111111001110 9
0A
1>
b11111111111111111111111111111110 (
b101110 *
b11 V
b11111111111111111111111111110110 U
b11111111111111111111111111001110 E
b111111111111111111111111111100010 <
b11111111111111111111111111011000 ;
b11111111111111111111111111011000 T
b1000100 !
b1000100 &
b1000100 R
1"
#730
0"
#735
0,
b101 Z
b1000101 !
b1000101 &
b1000101 R
1$
b1001 V
b11000 0
b10100 /
b10100 '
b10100 +
b10100 W
b10100 Q
1"
#740
0"
#745
0$
b1 V
b1000110 !
b1000110 &
b1000110 R
b100100000001000010011 %
b100100000001000010011 2
b100100000001000010011 \
1"
#750
0"
#755
b11111111111111111111111111011001 -
b11111111111111111111111111011001 9
1A
0>
b11111111111111111111111111010111 <
b11111111111111111111111111011001 (
b11111111111111111111111111011001 *
b11111111111111111111111111011001 E
b1 :
04
15
b100 1
b100 .
b100 D
b1000111 !
b1000111 &
b1000111 R
b10 V
b100100000001000010011 S
1"
#760
0"
#765
b101 -
b101 9
1B
0?
1,
b101 (
b101 *
b11 V
b101 E
b11 <
b100 ;
b100 T
b1001000 !
b1001000 &
b1001000 R
1"
#770
0"
#775
0,
b110 Z
b1001001 !
b1001001 &
b1001001 R
1$
b1001 V
b11100 0
b11000 /
b11000 '
b11000 +
b11000 W
b11000 Q
1"
#780
0"
#785
0$
b1 V
b1001010 !
b1001010 &
b1001010 R
b11111110001000100001110011100011 %
b11111110001000100001110011100011 2
b11111110001000100001110011100011 \
1"
#790
0"
#795
1)
b0 9
0A
1>
b0 -
b100000000000000000000000000001110 <
b11111111111111111111111111110110 (
b11111111111111111111111111110010 *
b10000 /
b11111111111111111111111111111010 E
b11111111111111111111111111110110 :
05
16
b11000 1
b11001 .
b1 8
b1111111 7
b11111111111111111111111111100010 @
b11111111111111111111111111111000 D
b1001011 !
b1001011 &
b1001011 R
b10 V
b11111110001000100001110011100011 S
1"
#800
0"
#805
0)
0=
1C
1A
0>
b101 :
b101 (
b0 *
b11 V
b101 U
b1010 E
b0 <
b101 ;
b101 T
b1001100 !
b1001100 &
b1001100 R
1"
#810
0"
#815
b111 Z
b1001101 !
b1001101 &
b1001101 R
1$
b1001 V
b100000 0
b10100 /
b11100 '
b11100 +
b11100 W
b11100 Q
1"
#820
0"
#825
0$
b1 V
b1001110 !
b1001110 &
b1001110 R
bx %
bx 2
bx \
1"
#830
0"
#835
xB
x?
x=
xC
xA
x>
bx -
bx <
bx1x1 (
bx *
x)
bx 9
bx E
bx :
bx /
x4
x5
x3
x6
bx 1
bx .
bx 8
bx 7
bx @
bx0 D
b1001111 !
b1001111 &
b1001111 R
b10 V
bx S
1"
#840
0"
#845
x,
bx (
b0xxx V
bx U
bx ;
bx T
b1010000 !
b1010000 &
b1010000 R
1"
