Lab02_Rtype_Itype_ex/test.vcd
$date
	Sat Apr 19 22:09:35 2025
$end
$version
	Icarus Verilog
$end
$timescale
	1s
$end
$scope module top_test $end
$var wire 32 ! cycle [31:0] $end
$var reg 1 " clk $end
$var reg 1 # rst $end
$scope module dut $end
$var wire 1 " clk $end
$var wire 1 # rst $end
$var wire 1 $ rstrb $end
$var wire 32 % mem_rdata [31:0] $end
$var wire 32 & cycle [31:0] $end
$var wire 32 ' addr [31:0] $end
$scope module cpu0 $end
$var wire 32 ( OR [31:0] $end
$var wire 32 ) XOR [31:0] $end
$var wire 1 " clk $end
$var wire 32 * mem_addr [31:0] $end
$var wire 1 # rst $end
$var wire 1 + write_reg_en $end
$var wire 32 , write_reg_data [31:0] $end
$var wire 5 - rd [4:0] $end
$var wire 32 . pcplus4 [31:0] $end
$var wire 5 / opcode [4:0] $end
$var wire 1 $ mem_rstrb $end
$var wire 32 0 mem_rdata [31:0] $end
$var wire 1 1 isSystype $end
$var wire 1 2 isRtype $end
$var wire 1 3 isItype $end
$var wire 7 4 funct7 [6:0] $end
$var wire 3 5 funct3 [2:0] $end
$var wire 32 6 alu_result [31:0] $end
$var wire 32 7 alu_in2 [31:0] $end
$var wire 32 8 alu_in1 [31:0] $end
$var wire 33 9 SUB [32:0] $end
$var wire 32 : I_data [31:0] $end
$var wire 32 ; ADD [31:0] $end
$var parameter 32 < BYTE1 $end
$var parameter 32 = BYTE2 $end
$var parameter 32 > BYTE3 $end
$var parameter 32 ? BYTE4 $end
$var parameter 32 @ DECODE $end
$var parameter 32 A EXECUTE $end
$var parameter 32 B FETCH $end
$var parameter 32 C HLT $end
$var parameter 32 D RESET $end
$var parameter 32 E WAIT $end
$var parameter 32 F WAIT_LOADING $end
$var reg 32 G addr [31:0] $end
$var reg 32 H cycle [31:0] $end
$var reg 32 I data [31:0] $end
$var reg 32 J data_rs1 [31:0] $end
$var reg 32 K data_rs2 [31:0] $end
$var reg 4 L state [3:0] $end
$upscope $end
$scope module mem0 $end
$var wire 32 M addr [31:0] $end
$var wire 1 " clk $end
$var wire 32 N data_in [31:0] $end
$var wire 1 $ rd_strobe $end
$var wire 1 # rst $end
$var wire 4 O wr_strobe [3:0] $end
$var wire 30 P mem_loc [29:0] $end
$var parameter 32 Q MEM_SIZE $end
$var reg 32 R data_out [31:0] $end
$upscope $end
$upscope $end
$upscope $end
$enddefinitions $end
$comment Show the parameter values. $end
$dumpall
b10000000000 Q
b1010 F
b1001 E
b0 D
b100 C
b1 B
b11 A
b10 @
b1000 ?
b111 >
b110 =
b101 <
$end
#0
$dumpvars
bx R
b0 P
bz O
bz N
b0 M
b0 L
bx K
bx J
bx I
b0 H
b0 G
bx ;
bx :
bx 9
bx 8
bx 7
bx 6
bx 5
bx 4
x3
x2
x1
bx 0
bx /
b100 .
bx -
bx ,
0+
b0 *
bx )
bx (
b0 '
b0 &
bx %
0$
1#
0"
b0 !
$end
#5
b0 6
b0 ,
b0 7
02
03
01
b0 /
b0 -
b0 5
b0 4
b0 :
b0 I
b0 %
b0 0
b0 R
1"
#10
0"
#15
1"
#20
0"
#25
1"
#30
0"
#35
1"
#40
0"
#45
1"
#50
0"
0#
#55
b1 !
b1 &
b1 H
1$
b1001 L
1"
#60
0"
#65
0$
b1 L
b10 !
b10 &
b10 H
b10000000000000000010010011 %
b10000000000000000010010011 0
b10000000000000000010010011 R
1"
#70
0"
#75
bx ,
bx 6
bx1xxxxx (
b100000 7
13
b100 /
b1 -
b1 4
b100000 :
b11 !
b11 &
b11 H
b10 L
b10000000000000000010010011 I
1"
#80
0"
#85
b100000 ,
b100000 6
1+
b100000 (
b100000 )
b11 L
b0 K
b100000 ;
b111111111111111111111111111100000 9
b0 8
b0 J
b100 !
b100 &
b100 H
1"
#90
0"
#95
0+
b1 P
b101 !
b101 &
b101 H
1$
b1001 L
b1000 .
b100 '
b100 *
b100 M
b100 G
1"
#100
0"
#105
0$
b1 L
b110 !
b110 &
b110 H
b1010000000000000100010011 %
b1010000000000000100010011 0
b1010000000000000100010011 R
1"
#110
0"
#115
b10100 ,
b10100 6
b111111111111111111111111111101100 9
b10100 (
b10100 )
b10100 ;
b10100 7
b10 -
b0 4
b10100 :
b111 !
b111 &
b111 H
b10 L
b1010000000000000100010011 I
1"
#120
0"
#125
1+
b11 L
bx K
b1000 !
b1000 &
b1000 H
1"
#130
0"
#135
0+
b10 P
b1001 !
b1001 &
b1001 H
1$
b1001 L
b1100 .
b1000 '
b1000 *
b1000 M
b1000 G
1"
#140
0"
#145
0$
b1 L
b1010 !
b1010 &
b1010 H
b1000001000000110110011 %
b1000001000000110110011 0
b1000001000000110110011 R
1"
#150
0"
#155
bx ,
bx 6
bx 9
bx (
bx )
bx ;
bx 7
12
03
b1100 /
b11 -
b10 :
b1011 !
b1011 &
b1011 H
b10 L
b1000001000000110110011 I
1"
#160
0"
#165
b110100 ,
b110100 6
b1100 9
b110100 )
1+
b110100 ;
b10100 7
b110100 (
b11 L
b10100 K
b100000 8
b100000 J
b1100 !
b1100 &
b1100 H
1"
#170
0"
#175
0+
b11 P
b1101 !
b1101 &
b1101 H
1$
b1001 L
b10000 .
b1100 '
b1100 *
b1100 M
b1100 G
1"
#180
0"
#185
0$
b1 L
b1110 !
b1110 &
b1110 H
b100000000000001110011 %
b100000000000001110011 0
b100000000000001110011 R
1"
#190
0"
#195
b0 6
b11111 9
b100001 (
b100001 )
b0 ,
b100001 ;
b1 7
02
11
b11100 /
b0 -
b1 :
b1111 !
b1111 &
b1111 H
b10 L
b100000000000001110011 I
1"
#200
0"
#205
b1 (
b1 )
b100 L
b100000 K
b1 ;
b111111111111111111111111111111111 9
b0 8
b0 J
b10000 !
b10000 &
b10000 H
1"
